{
    "editor": [
        {
            "icon": "",
            "key": "settings",
            "header": "Settings",
            "disabled": false,
            "fields": [
                {
                    "key": "success_header",
                    "header": "success_header",
                    "type": "text"
                },
                {
                    "key": "success_text",
                    "header": "success_text",
                    "type": "text"
                },
                {
                    "key": "success_buttonText",
                    "header": "success_buttonText",
                    "type": "text"
                },
                {
                    "key": "success_image",
                    "header": "success_image",
                    "type": "image"
                },
                {
                    "key": "bg_image",
                    "header": "bg_image",
                    "type": "image"
                },
                {
                    "key": "title",
                    "header": "title",
                    "type": "text"
                },
                {
                    "key": "headline",
                    "header": "Header",
                    "type": "text"
                },
                {
                    "key": "enough_funds",
                    "header": "enough_funds",
                    "type": "text"
                },
                {
                    "key": "price",
                    "header": "price",
                    "type": "text"
                }
            ]
        }
    ],
    "config": {
        "settings": {
            "success_header": "Tip has been sent",
            "success_text": "Thank you for supporting my Free Online Tutorial Classes",
            "success_buttonText": "TIP AGAIN",
            "success_image": "https://frontend.apps.playcent.com/8680cb12c8494f7cb4de98dda8a78f86/assets/success.png",
            "bg_image": "https://frontend.apps.playcent.com/8680cb12c8494f7cb4de98dda8a78f86/assets/bg2.png",
            "title": "Tip Jar",
            "headline": "Tip Jar for Free Online Tutorial Classes",
            "enough_funds": "Not enough funds  ",
            "price": ""
        }
    }
}